Análisis Criminológico de Datos - 5 Workflow general
…
adjvar <- varianzas_base %>% 
  left_join(ini, by = c("COMUNA", "TIPO")) %>% 
  left_join(fin, by = c("COMUNA", "TIPO")) %>% 
  mutate_if(.predicate = is.numeric,
            .funs = function(x) ifelse(is.na(x), 0, x)) # si es NA -> 0

Indicador de Variación

adjvar <- adjvar %>% 
  mutate(adjvar = (fin-inicio)/(fin+inicio)) %>% 
  mutate_if(.predicate = is.numeric,
            .funs = function(x) ifelse(is.na(x), 0, x))
adjvar

# A tibble: 2,076 × 7
# Groups:   COMUNA, TIPO [2,076]
   COMUNA TIPO               varianza cantidad inicio   fin adjvar
   <chr>  <chr>                 <dbl>    <int>  <dbl> <dbl>  <dbl>
 1 10101  Abandono familia      0            4      0     1      1
 2 10101  Abuso y Corrupción    0            2      1     0     -1
 3 10101  Aprehensión           0.354        9      4     0     -1
 4 10101  Armas                 0            3      0     0      0
 5 10101  Comercio ilegal       0            2      0     0      0
 6 10101  Daños                 0.316       11      1     0     -1
 7 10101  Delitos económicos    0            9      0     1      1
 8 10101  Desacato              0            3      1     0     -1
 9 10101  Desórdenes            0.648       67      6     6      0
10 10101  Drogas                0            1      0     0      0
# ℹ 2,066 more rows
…
Insertar las abreviaciones a la base y reemplazar por TIPO

adjvar <- adjvar %>% 
  left_join(abrev_tipos, by = c("TIPO" = "Tipo.delito")) %>% 
  mutate(TIPO = Abreviacion) %>% 
  select(-Abreviacion)
adjvar

# A tibble: 2,076 × 7
# Groups:   COMUNA, TIPO [2,076]
   COMUNA TIPO   varianza cantidad inicio   fin adjvar
   <chr>  <chr>     <dbl>    <int>  <dbl> <dbl>  <dbl>
 1 10101  AbFam     0            4      0     1      1
 2 10101  AbCorr    0            2      1     0     -1
 3 10101  Apreh     0.354        9      4     0     -1
 4 10101  Armas     0            3      0     0      0
 5 10101  ComIl     0            2      0     0      0
 6 10101  Danos     0.316       11      1     0     -1
 7 10101  DelEc     0            9      0     1      1
 8 10101  Desac     0            3      1     0     -1
 9 10101  Desor     0.648       67      6     6      0
10 10101  Droga     0            1      0     0      0
# ℹ 2,066 more rows

Transformar en formato wider

# Pivot Wider
varianzas_w <- adjvar%>% 
  select(-varianza, -cantidad, -inicio, -fin ) %>% 
  pivot_wider(names_from = TIPO,
              values_from = c(adjvar), values_fill = 0) %>% 
  mutate(COMUNA = sprintf("%05d", as.numeric(COMUNA)))
varianzas_w

# A tibble: 288 × 25
# Groups:   COMUNA [288]
   COMUNA AbFam AbCorr Apreh Armas ComIl Danos DelEc Desac Desor Droga HallMu
   <chr>  <dbl>  <dbl> <dbl> <dbl> <dbl> <dbl> <dbl> <dbl> <dbl> <dbl>  <dbl>
 1 10101      1     -1    -1     0     0    -1     1    -1     0     0      0
 2 10102      0      0     0     0     0     0     0     0     0     0      0
 3 10104      0      0     0     0     0     0     0     0     0     0      0
 4 10105      0      0     0     0     0     0     0     0     1     0      0
 5 10106      0      0     0     0     0     0     0     0     0     0      0
 6 10107      0      0     0     0     0     0     0     0     1     0      0
 7 10108      0      0     0     0     0     0     0     0     0     0      0
 8 10109      0      0    -1     0     0     0    -1     0    -1     0      0
 9 10201      0      0     0     0     0     0     0     0    -1     0      0
10 10202      0      0     0     0     0     0     0     0     0     0      0
# ℹ 278 more rows
# ℹ 13 more variables: HuRob <dbl>, LesGra <dbl>, PreDes <dbl>, RoDom <dbl>,
#   RoVe <dbl>, RoVio <dbl>, TraPer <dbl>, VioFam <dbl>, AbSex <dbl>,
#   Trans <dbl>, HallVe <dbl>, Secues <dbl>, Homic <dbl>
…
adjvar <- varianzas_base_z %>% 
  left_join(ini_z, by = c("ZONA", "TIPO")) %>% 
  left_join(fin_z, by = c("ZONA", "TIPO")) %>% 
  mutate_if(.predicate = is.numeric,
            .funs = function(x) ifelse(is.na(x), 0, x)) # si es NA -> 0

Indicador de Variación

adjvar <- adjvar %>% 
  mutate(adjvar = (fin-inicio)/(fin+inicio)) %>% 
  mutate_if(.predicate = is.numeric,
            .funs = function(x) ifelse(is.na(x), 0, x))
adjvar

# A tibble: 7,152 × 7
# Groups:   ZONA, TIPO [7,152]
   ZONA        TIPO               varianza cantidad inicio   fin adjvar
   <chr>       <chr>                 <dbl>    <int>  <dbl> <dbl>  <dbl>
 1 10101011001 Abuso y Corrupción        0        1      0     0      0
 2 10101011001 Comercio ilegal           0        1      0     0      0
 3 10101011001 Daños                     0        3      0     0      0
 4 10101011001 Delitos económicos        0        1      0     0      0
 5 10101011001 Desórdenes                0        4      0     0      0
 6 10101011001 Hurtos y Robos            0        3      0     1      1
 7 10101011002 Delitos económicos        0        3      0     0      0
 8 10101011002 Desórdenes                0        3      1     0     -1
 9 10101011002 Hurtos y Robos            0        3      2     0     -1
10 10101011002 Presunta desgracia        0        1      1     0     -1
# ℹ 7,142 more rows
…
Estructuración en Panel Wide

En este paso cada Tipo de delitos será columna entonces los nombres se deben abreviar, pero de una forma segura, evitando la signación manual. Por lo anterior, se realizarà de la misma forma realizada anteriormente:

Insertar las abreviaciones a la base y reemplazar por TIPO

adjvar <- adjvar %>% 
  left_join(abrev_tipos, by = c("TIPO" = "Tipo.delito")) %>% 
  mutate(TIPO = Abreviacion) %>% 
  select(-Abreviacion)
adjvar

# A tibble: 7,152 × 7
# Groups:   ZONA, TIPO [7,152]
   ZONA        TIPO   varianza cantidad inicio   fin adjvar
   <chr>       <chr>     <dbl>    <int>  <dbl> <dbl>  <dbl>
 1 10101011001 AbCorr        0        1      0     0      0
 2 10101011001 ComIl         0        1      0     0      0
 3 10101011001 Danos         0        3      0     0      0
 4 10101011001 DelEc         0        1      0     0      0
 5 10101011001 Desor         0        4      0     0      0
 6 10101011001 HuRob         0        3      0     1      1
 7 10101011002 DelEc         0        3      0     0      0
 8 10101011002 Desor         0        3      1     0     -1
 9 10101011002 HuRob         0        3      2     0     -1
10 10101011002 PreDes        0        1      1     0     -1
# ℹ 7,142 more rows

Transformar en formato wider

# Pivot Wider
varianzas_w_z <- adjvar%>% 
  select(-varianza, -cantidad, -inicio, -fin ) %>% 
  pivot_wider(names_from = TIPO,
              values_from = c(adjvar), values_fill = 0) 
# %>% 
  # mutate(COMUNA = sprintf("%05d", as.numeric(COMUNA)))
varianzas_w_z

# A tibble: 3,385 × 25
# Groups:   ZONA [3,385]
   ZONA     AbCorr ComIl Danos DelEc Desor HuRob PreDes TraPer  RoVe AbFam Apreh
   <chr>     <dbl> <dbl> <dbl> <dbl> <dbl> <dbl>  <dbl>  <dbl> <dbl> <dbl> <dbl>
 1 1010101…      0     0     0     0     0     1      0      0     0     0     0
 2 1010101…      0     0     0     0    -1    -1     -1      0     0     0     0
 3 1010102…      0     0     0     0     0     0      0      0     0     0     0
 4 1010102…      0     0     0     0     0     0      0      0     0     0     0
 5 1010102…      0     0     0     0     1     0      0      0     0     0     0
 6 1010102…      0     0     0     0    -1     0      0      0     0     0     0
 7 1010102…      0     0     0     0     0     0      0      0     0     0     0
 8 1010103…      0     0     0     0     0     0      0      0     0     0     0
 9 1010103…      0     0     0     0     0     0      0      0     0     0     0
10 1010103…      0     0     0     0     0     0      0      0     0     0     0
# ℹ 3,375 more rows
# ℹ 13 more variables: LesGra <dbl>, Armas <dbl>, RoVio <dbl>, VioFam <dbl>,
#   RoDom <dbl>, Droga <dbl>, Desac <dbl>, HallMu <dbl>, AbSex <dbl>,
#   Trans <dbl>, HallVe <dbl>, Secues <dbl>, Homic <dbl>
…
